%YAML 1.1
%TAG !u! tag:unity3d.com,2011:
--- !u!114 &11400000
MonoBehaviour:
  m_ObjectHideFlags: 0
  m_CorrespondingSourceObject: {fileID: 0}
  m_PrefabInstance: {fileID: 0}
  m_PrefabAsset: {fileID: 0}
  m_GameObject: {fileID: 0}
  m_Enabled: 1
  m_EditorHideFlags: 0
  m_Script: {fileID: 11500000, guid: e3bdf577b1f51e6419322b229093c361, type: 3}
  m_Name: Level 6
  m_EditorClassIdentifier: 
  thubnail: {fileID: 21300000, guid: b3f09ecab2058d744985ece763be8828, type: 3}
  pathThubnail: {fileID: 21300000, guid: 1631753ee37f4d74cbf97b5a9a5bf2b7, type: 3}
  postThubnail: {x: 0, y: 0}
  postPathThubnail: {x: 0.029, y: -0.475}
  postDostsVector2:
  - {x: -0.436, y: -0.969}
  - {x: 0.016, y: -0.019}
  - {x: 0.503, y: -0.949}
  oneStar: 0
  twoStar: 0
  threeStar: 0
  wasPlay: 0
