%YAML 1.1
%TAG !u! tag:unity3d.com,2011:
--- !u!114 &11400000
MonoBehaviour:
  m_ObjectHideFlags: 0
  m_CorrespondingSourceObject: {fileID: 0}
  m_PrefabInstance: {fileID: 0}
  m_PrefabAsset: {fileID: 0}
  m_GameObject: {fileID: 0}
  m_Enabled: 1
  m_EditorHideFlags: 0
  m_Script: {fileID: 11500000, guid: 0fbc4922c836dda41b5f6cf2fd70525d, type: 3}
  m_Name: SpineSettings
  m_EditorClassIdentifier: 
  defaultScale: 0.01
  defaultMix: 0.2
  defaultShader: Spine/Skeleton
  defaultZSpacing: 0
  defaultInstantiateLoop: 1
  showHierarchyIcons: 1
  setTextureImporterSettings: 1
  textureSettingsReference: 
  atlasTxtImportWarning: 1
  textureImporterWarning: 1
  componentMaterialWarning: 1
  autoReloadSceneSkeletons: 1
  handleScale: 1
  mecanimEventIncludeFolderName: 1
  timelineUseBlendDuration: 1
