%YAML 1.1
%TAG !u! tag:unity3d.com,2011:
--- !u!114 &11400000
MonoBehaviour:
  m_ObjectHideFlags: 0
  m_CorrespondingSourceObject: {fileID: 0}
  m_PrefabInstance: {fileID: 0}
  m_PrefabAsset: {fileID: 0}
  m_GameObject: {fileID: 0}
  m_Enabled: 1
  m_EditorHideFlags: 0
  m_Script: {fileID: 11500000, guid: e76ad263429bd0546988c7acbdb4342b, type: 3}
  m_Name: bird 1 - final_Atlas
  m_EditorClassIdentifier: 
  atlasFile: {fileID: 4900000, guid: b24ceabdf1934e04db8595b773a216fa, type: 3}
  materials:
  - {fileID: 2100000, guid: c191f24395e92a742bf3683096a6c370, type: 2}
  - {fileID: 2100000, guid: de6b88a39ed75ed4b939be890bc20708, type: 2}
