%YAML 1.1
%TAG !u! tag:unity3d.com,2011:
--- !u!114 &11400000
MonoBehaviour:
  m_ObjectHideFlags: 0
  m_CorrespondingSourceObject: {fileID: 0}
  m_PrefabInstance: {fileID: 0}
  m_PrefabAsset: {fileID: 0}
  m_GameObject: {fileID: 0}
  m_Enabled: 1
  m_EditorHideFlags: 0
  m_Script: {fileID: 11500000, guid: e3bdf577b1f51e6419322b229093c361, type: 3}
  m_Name: Level 2
  m_EditorClassIdentifier: 
  thubnail: {fileID: 0}
  pathThubnail: {fileID: 0}
  postThubnail: {x: 0, y: 0}
  postPathThubnail: {x: 0, y: 0}
  postDostsVector2: []
  wasPlay: 0
